<?xml version="1.0" standalone="no"?>
<!DOCTYPE svg PUBLIC "-//W3C//DTD SVG 1.1//EN" "http://www.w3.org/Graphics/SVG/1.1/DTD/svg11.dtd" >
<svg xmlns="http://www.w3.org/2000/svg">
<metadata>Generated by IcoMoon</metadata>
<defs>
<font id="icomoon" horiz-adv-x="512">
<font-face units-per-em="512" ascent="480" descent="-32" />
<missing-glyph horiz-adv-x="512" />
<glyph unicode="&#x20;" d="" horiz-adv-x="256" />
<glyph unicode="&#xe600;" d="M256 480c141.385 0 256-114.615 256-256 0-130.547-97.719-238.265-224-254.013v190.013h88l8 64h-96v32c0 17.673 14.327 32 32 32h64v64h-64c-53.020 0-96-42.98-96-96v-32h-48v-64h48v-190.013c-126.281 15.748-224 123.466-224 254.013 0 141.385 114.615 256 256 256z" />
<glyph unicode="&#xe601;" d="M256 480c-141.385 0-256-114.615-256-256s114.615-256 256-256 256 114.615 256 256-114.615 256-256 256zM403.121 299.456c0.146-3.254 0.221-6.528 0.221-9.819 0-100.311-76.354-215.982-215.979-215.982-42.868 0-82.768 12.568-116.363 34.107 5.938-0.704 11.981-1.063 18.108-1.063 35.565 0 68.295 12.138 94.275 32.497-33.217 0.61-61.25 22.561-70.912 52.716 4.637-0.884 9.392-1.361 14.283-1.361 6.923 0 13.629 0.928 19.999 2.662-34.726 6.976-60.893 37.656-60.893 74.434 0 0.32 0 0.639 0.008 0.955 10.235-5.685 21.939-9.1 34.382-9.494-20.37 13.611-33.77 36.846-33.77 63.184 0 13.911 3.744 26.952 10.278 38.162 37.439-45.927 93.374-76.146 156.462-79.314-1.294 5.559-1.965 11.351-1.965 17.302 0 41.92 33.99 75.906 75.909 75.906 21.833 0 41.562-9.218 55.409-23.97 17.29 3.404 33.537 9.721 48.206 18.42-5.668-17.727-17.705-32.603-33.376-41.997 15.355 1.834 29.984 5.916 43.597 11.952-10.175-15.224-23.045-28.593-37.879-39.297z" />
<glyph unicode="&#xe602;" d="M427 480h-342c-46.75 0-85-38.25-85-85v-342c0-46.75 38.25-85 85-85h342c46.75 0 85 38.25 85 85v342c0 46.75-38.25 85-85 85zM163.9 256h184.2c3.494-10.029 5.4-20.795 5.4-32 0-53.762-43.738-97.5-97.5-97.5-53.762 0-97.5 43.738-97.5 97.5 0 11.205 1.906 21.971 5.4 32zM448 255.975v-191.975c0-17.6-14.4-32-32-32h-320c-17.6 0-32 14.4-32 32v192h50.054c-2.321-10.301-3.554-21.008-3.554-32 0-80.229 65.271-145.5 145.5-145.5 80.229 0 145.5 65.271 145.5 145.5 0 10.992-1.232 21.699-3.554 32l50.054-0.025zM448 368c0-8.8-7.2-16-16-16h-32c-8.8 0-16 7.2-16 16v32c0 8.8 7.2 16 16 16h32c8.8 0 16-7.2 16-16v-32z" />
<glyph unicode="&#xe603;" d="M256 480c-141.385 0-256-114.615-256-256s114.613-256 256-256c141.385 0 256 114.615 256 256s-114.615 256-256 256zM280.822 137.941c-23.26 1.807-33.021 13.328-51.252 24.404-10.030-52.588-22.282-103.008-58.57-129.343-11.202 79.484 16.447 139.182 29.285 202.557-21.892 36.853 2.635 111.017 48.81 92.737 56.813-22.474-49.2-137.004 21.966-151.308 74.31-14.934 104.644 128.929 58.571 175.712-66.579 67.553-193.799 1.54-178.155-95.178 3.807-23.646 28.236-30.819 9.762-63.451-42.61 9.446-55.325 43.051-53.688 87.856 2.634 73.337 65.892 124.682 129.343 131.783 80.242 8.982 155.553-29.454 165.953-104.938 11.706-85.195-36.224-177.465-122.025-170.831z" />
<glyph unicode="&#xe604;" d="M496.131 44.302l-121.276 103.147c-12.537 11.283-25.945 16.463-36.776 15.963 28.628 33.534 45.921 77.039 45.921 124.588 0 106.039-85.961 192-192 192-106.038 0-192-85.961-192-192 0-106.039 85.961-192 192-192 47.549 0 91.054 17.293 124.588 45.922-0.5-10.831 4.68-24.239 15.963-36.776l103.147-121.276c17.661-19.623 46.511-21.277 64.11-3.678s15.946 46.449-3.677 64.11zM192 160c-70.692 0-128 57.308-128 128s57.308 128 128 128 128-57.308 128-128-57.307-128-128-128z" />
<glyph unicode="&#xe605;" d="M512 300.922c0-43.181-18.609-82.015-48.245-108.922h0.245l-160-160c-16-16-32-32-48-32s-32 16-48 32l-159.755 160c-29.636 26.907-48.245 65.741-48.245 108.922 0 81.229 65.849 147.078 147.078 147.078 43.181 0 82.015-18.609 108.922-48.245 26.907 29.636 65.741 48.245 108.922 48.245 81.228 0 147.078-65.849 147.078-147.078z" />
<glyph unicode="&#xe606;" d="M288.117 335.365l121.356 40.716 101.792-303.392-121.356-40.716zM0 32h128v352h-128v-352zM32 320h64v-32h-64v32zM160 32h128v352h-128v-352zM192 320h64v-32h-64v32z" />
<glyph unicode="&#xe607;" d="M449.18 448h-385.18v-64h-46.82c-8.8 0-17.18-6.264-17.18-15.064v-32c0-8.8 8.38-16.936 17.18-16.936h46.82v-32h-46.82c-8.8 0-17.18-6.264-17.18-15.064v-32c0-8.8 8.38-16.936 17.18-16.936h46.82v-32h-46.82c-8.8 0-17.18-6.264-17.18-15.064v-32c0-8.799 8.38-16.936 17.18-16.936h46.82v-32h-46.82c-8.8 0-17.18-6.264-17.18-15.064v-32c0-8.8 8.38-16.936 17.18-16.936h46.82v-64h385.18c17.674 0 30.82 15.263 30.82 32.936v416c0 17.673-13.146 31.064-30.82 31.064zM160 0h-64v32h17.18c8.8 0 14.82 8.136 14.82 16.936v32c0 8.801-6.021 15.064-14.82 15.064h-17.18v32h17.18c8.8 0 14.82 8.136 14.82 16.936v32c0 8.801-6.021 15.064-14.82 15.064h-17.18v32h17.18c8.8 0 14.82 8.136 14.82 16.936v32c0 8.801-6.021 15.064-14.82 15.064h-17.18v32h17.18c8.8 0 14.82 8.136 14.82 16.936v32c0 8.801-6.020 15.064-14.82 15.064h-17.18v32h64v-416z" />
<glyph unicode="&#xe608;" d="M448 416h-48v-16c0-17.645-14.355-32-32-32s-32 14.355-32 32v16h-160v-16c0-17.645-14.355-32-32-32s-32 14.355-32 32v16h-48c-17.6 0-32-14.4-32-32v-352c0-17.6 14.4-32 32-32h384c17.6 0 32 14.4 32 32v352c0 17.6-14.4 32-32 32zM448 32.058c-0.017-0.020-0.038-0.041-0.058-0.058h-383.885c-0.020 0.017-0.041 0.038-0.057 0.058v287.942h384v-287.942zM144 384c8.836 0 16 7.164 16 16v64c0 8.836-7.164 16-16 16s-16-7.164-16-16v-64c0-8.836 7.164-16 16-16zM368 384c8.836 0 16 7.164 16 16v64c0 8.836-7.164 16-16 16s-16-7.164-16-16v-64c0-8.836 7.164-16 16-16zM288 288h-160v-32h128v-64h-128v-32h128v-64h-128v-32h160zM352 64h32v224h-64v-32h32zM436-12h-360c-17.6 0-32 10.4-32 28v-16c0-17.6 14.4-32 32-32h360c17.6 0 32 14.4 32 32v16c0-17.6-14.4-28-32-28z" />
<glyph unicode="&#xe609;" d="M160 288h64v-64h-64zM256 288h64v-64h-64zM352 288h64v-64h-64zM64 96h64v-64h-64zM160 96h64v-64h-64zM256 96h64v-64h-64zM160 192h64v-64h-64zM256 192h64v-64h-64zM352 192h64v-64h-64zM64 192h64v-64h-64zM416 480v-32h-64v32h-224v-32h-64v32h-64v-512h480v512h-64zM448 0h-416v352h416v-352z" />
<glyph unicode="&#xe60a;" d="M368 480h-224c-26.4 0-48-21.6-48-48v-416c0-26.4 21.6-48 48-48h224c26.4 0 48 21.6 48 48v416c0 26.4-21.6 48-48 48zM192 456h128v-16h-128v16zM256 0c-17.673 0-32 14.327-32 32s14.327 32 32 32 32-14.327 32-32-14.327-32-32-32zM384 96h-256v320h256v-320z" />
<glyph unicode="&#xe60b;" d="M502.624 358.64l-96 96c-6 6-14.16 9.36-22.624 9.36h-336c-26.464 0-48-21.52-48-48v-384c0-26.464 21.536-48 48-48h416c26.464 0 48 21.536 48 48v304c0 8.496-3.376 16.64-9.376 22.64zM480 32c0-8.848-7.152-16-16-16h-416c-8.848 0-16 7.152-16 16v384c0 8.848 7.152 16 16 16h320v-64h-0.032c0-26.512 21.504-48 48-48h64.032v-288zM431.968 336h-16c-17.632 0-32 14.352-32 32h0.032v64l96-96h-48.032zM248 352c-4.416 0-8 3.568-8 8s3.584 8 8 8h80c4.4 0 8-3.584 8-8s-3.6-8-8-8h-80zM248 304c-4.416 0-8 3.584-8 8s3.584 8 8 8h80c4.4 0 8-3.584 8-8s-3.6-8-8-8h-80zM240 264c0 4.432 3.584 8 8 8h192c4.4 0 8-3.584 8-8s-3.6-8-8-8h-192c-4.416 0-8 3.584-8 8zM440 176c4.4 0 8-3.568 8-8 0-4.4-3.6-8-8-8h-368c-4.416 0-8 3.6-8 8 0 4.432 3.584 8 8 8h368zM440 128c4.4 0 8-3.568 8-8 0-4.4-3.6-8-8-8h-368c-4.416 0-8 3.6-8 8 0 4.432 3.584 8 8 8h368zM440 80c4.4 0 8-3.568 8-8 0-4.4-3.6-8-8-8h-368c-4.416 0-8 3.6-8 8 0 4.432 3.584 8 8 8h368zM440 224c4.4 0 8-3.584 8-8s-3.6-8-8-8h-368c-4.416 0-8 3.568-8 8s3.584 8 8 8h368zM80 256h112c8.848 0 16 7.152 16 16v96c0 8.848-7.152 16-16 16h-112c-8.848 0-16-7.152-16-16v-96c0-8.832 7.152-16 16-16zM96 352h80v-64h-80v64z" />
<glyph unicode="&#xe60c;" d="M469.344 432h-69.344v32c0 8.848-7.152 16-16 16s-16-7.152-16-16v-32h-96v32c0 8.848-7.168 16-16 16s-16-7.152-16-16v-32h-96v32c0 8.848-7.168 16-16 16s-16-7.152-16-16v-32h-69.328c-23.568 0-42.672-19.088-42.672-42.656v-378.672c0-23.568 19.104-42.672 42.672-42.672h426.672c23.568 0 42.656 19.104 42.656 42.672v378.672c0 23.568-19.088 42.656-42.656 42.656zM480 10.672c0-5.888-4.784-10.672-10.656-10.672h-426.672c-5.888 0-10.672 4.784-10.672 10.672v378.672c0 5.872 4.784 10.656 10.672 10.656h69.328v-32c0-8.848 7.168-16 16-16s16 7.152 16 16v32h96v-32c0-8.848 7.168-16 16-16s16 7.152 16 16v32h96v-32c0-8.848 7.152-16 16-16s16 7.152 16 16v32h69.344c5.872 0 10.656-4.784 10.656-10.656v-378.672zM112 288h64v-48h-64zM112 208h64v-48h-64zM112 128h64v-48h-64zM224 128h64v-48h-64zM224 208h64v-48h-64zM224 288h64v-48h-64zM336 128h64v-48h-64zM336 208h64v-48h-64zM336 288h64v-48h-64z" />
</font></defs></svg>